ST558HW4
…
Rows: 214 Columns: 11
── Column specification ────────────────────────────────────────────────────────
Delimiter: ","
dbl (11): Id, RefIndx, Na, Mg, Al, Si, K, Ca, Ba, Fe, TypeofGlass

ℹ Use `spec()` to retrieve the full column specification for this data.
ℹ Specify the column types or set `show_col_types = FALSE` to quiet this message.

glass_data

# A tibble: 214 × 11
      Id RefIndx    Na    Mg    Al    Si     K    Ca    Ba    Fe TypeofGlass
   <dbl>   <dbl> <dbl> <dbl> <dbl> <dbl> <dbl> <dbl> <dbl> <dbl>       <dbl>
 1     1    1.52  13.6  4.49  1.1   71.8  0.06  8.75     0  0              1
 2     2    1.52  13.9  3.6   1.36  72.7  0.48  7.83     0  0              1
 3     3    1.52  13.5  3.55  1.54  73.0  0.39  7.78     0  0              1
 4     4    1.52  13.2  3.69  1.29  72.6  0.57  8.22     0  0              1
 5     5    1.52  13.3  3.62  1.24  73.1  0.55  8.07     0  0              1
 6     6    1.52  12.8  3.61  1.62  73.0  0.64  8.07     0  0.26           1
 7     7    1.52  13.3  3.6   1.14  73.1  0.58  8.17     0  0              1
 8     8    1.52  13.2  3.61  1.05  73.2  0.57  8.24     0  0              1
 9     9    1.52  14.0  3.58  1.37  72.1  0.56  8.3      0  0              1
10    10    1.52  13    3.6   1.36  73.0  0.57  8.4      0  0.11           1
# ℹ 204 more rows
…
Rows: 214 Columns: 11
── Column specification ────────────────────────────────────────────────────────
Delimiter: ","
dbl (11): Id, RefIndx, Na, Mg, Al, Si, K, Ca, Ba, Fe, TypeofGlass

ℹ Use `spec()` to retrieve the full column specification for this data.
ℹ Specify the column types or set `show_col_types = FALSE` to quiet this message.

glass_data

# A tibble: 214 × 11
      Id RefIndx    Na    Mg    Al    Si     K    Ca    Ba    Fe TypeofGlass
   <dbl>   <dbl> <dbl> <dbl> <dbl> <dbl> <dbl> <dbl> <dbl> <dbl>       <dbl>
 1     1    1.52  13.6  4.49  1.1   71.8  0.06  8.75     0  0              1
 2     2    1.52  13.9  3.6   1.36  72.7  0.48  7.83     0  0              1
 3     3    1.52  13.5  3.55  1.54  73.0  0.39  7.78     0  0              1
 4     4    1.52  13.2  3.69  1.29  72.6  0.57  8.22     0  0              1
 5     5    1.52  13.3  3.62  1.24  73.1  0.55  8.07     0  0              1
 6     6    1.52  12.8  3.61  1.62  73.0  0.64  8.07     0  0.26           1
 7     7    1.52  13.3  3.6   1.14  73.1  0.58  8.17     0  0              1
 8     8    1.52  13.2  3.61  1.05  73.2  0.57  8.24     0  0              1
 9     9    1.52  14.0  3.58  1.37  72.1  0.56  8.3      0  0              1
10    10    1.52  13    3.6   1.36  73.0  0.57  8.4      0  0.11           1
# ℹ 204 more rows
…
#EXPLANATION: after removing the columns, I used mutate() to change the columns from character into numeric so I could perform the summary functions on them. Then did group_by(class) to group the data by the class variable, then the summarize() function with (across) to calculate the mean and median of each numeric variable. Then for names I used the .names argument of across() to name each output column as the column name_function name. I know it was done differently in the class example but I liked this better since we are doing statistics for many variables not just one 

Task 3: Combining Excel and Delimited Data

Part 1 (Question 1-3) Manipulating the white wine dataset

#1. Importing first sheet of the wine data using readxl package and printing out the tibble 
whitewine <-
  readxl::read_excel("white-wine.xlsx", sheet = "white-wine") 
whitewine

# A tibble: 4,898 × 12
   `fixed acidity` `volatile acidity` `citric acid` `residual sugar` chlorides
             <dbl>              <dbl>         <dbl>            <dbl>     <dbl>
 1               7               0.27          0.36             20.7     0.045
 2              63               0.3           0.34              1.6     0.049
 3              81               0.28          0.4               6.9     0.05 
 4              72               0.23          0.32              8.5     0.058
 5              72               0.23          0.32              8.5     0.058
 6              81               0.28          0.4               6.9     0.05 
 7              62               0.32          0.16              7       0.045
 8               7               0.27          0.36             20.7     0.045
 9              63               0.3           0.34              1.6     0.049
10              81               0.22          0.43              1.5     0.044
# ℹ 4,888 more rows
# ℹ 7 more variables: `free sulfur dioxide` <dbl>,
#   `total sulfur dioxide` <dbl>, density <dbl>, pH <dbl>, sulphates <dbl>,
#   alcohol <dbl>, quality <dbl>

#2. Reading in the data from the 2nd sheet for the column names 
variables <-
  readxl::read_excel("white-wine.xlsx", sheet = "variables")

colnames(whitewine) <- variables$Variables

#3. Adding a column to indicate the wines that are white, using the mutate function from dplyr
whitewine <- whitewine |> mutate(type = "white")
whitewine

# A tibble: 4,898 × 13
   fixed_acidity volatile_acidity citric_acid residual_sugar chlorides
           <dbl>            <dbl>       <dbl>          <dbl>     <dbl>
 1             7             0.27        0.36           20.7     0.045
 2            63             0.3         0.34            1.6     0.049
 3            81             0.28        0.4             6.9     0.05 
 4            72             0.23        0.32            8.5     0.058
 5            72             0.23        0.32            8.5     0.058
 6            81             0.28        0.4             6.9     0.05 
 7            62             0.32        0.16            7       0.045
 8             7             0.27        0.36           20.7     0.045
 9            63             0.3         0.34            1.6     0.049
10            81             0.22        0.43            1.5     0.044
# ℹ 4,888 more rows
# ℹ 8 more variables: free_sulfur_dioxide <dbl>, total_sulfur_dioxide <dbl>,
#   density <dbl>, pH <dbl>, sulphates <dbl>, alcohol <dbl>, quality <dbl>,
#   type <chr>
…
Rows: 1599 Columns: 12

── Column specification ────────────────────────────────────────────────────────
Delimiter: ";"
chr (5): volatile acidity, citric acid, chlorides, density, sulphates
dbl (2): total sulfur dioxide, quality
num (5): fixed acidity, residual sugar, free sulfur dioxide, pH, alcohol

ℹ Use `spec()` to retrieve the full column specification for this data.
ℹ Specify the column types or set `show_col_types = FALSE` to quiet this message.

redwine

# A tibble: 1,599 × 12
   `fixed acidity` `volatile acidity` `citric acid` `residual sugar` chlorides
             <dbl> <chr>              <chr>                    <dbl> <chr>    
 1              74 0.7                0                           19 0.076    
 2              78 0.88               0                           26 0.098    
 3              78 0.76               0.04                        23 0.092    
 4             112 0.28               0.56                        19 0.075    
 5              74 0.7                0                           19 0.076    
 6              74 0.66               0                           18 0.075    
 7              79 0.6                0.06                        16 0.069    
 8              73 0.65               0                           12 0.065    
 9              78 0.58               0.02                         2 0.073    
10              75 0.5                0.36                        61 0.071    
# ℹ 1,589 more rows
# ℹ 7 more variables: `free sulfur dioxide` <dbl>,
#   `total sulfur dioxide` <dbl>, density <chr>, pH <dbl>, sulphates <chr>,
#   alcohol <dbl>, quality <dbl>

colnames(redwine) <- variables$Variables

#making columns numeric so i can later combine with the white wine data set, since they are numeric there 
redwine<- redwine |> mutate(across(everything(), as.numeric))

redwine <- redwine |> mutate(type = "red")
redwine

# A tibble: 1,599 × 13
   fixed_acidity volatile_acidity citric_acid residual_sugar chlorides
           <dbl>            <dbl>       <dbl>          <dbl>     <dbl>
 1            74             0.7         0                19     0.076
 2            78             0.88        0                26     0.098
 3            78             0.76        0.04             23     0.092
 4           112             0.28        0.56             19     0.075
 5            74             0.7         0                19     0.076
 6            74             0.66        0                18     0.075
 7            79             0.6         0.06             16     0.069
 8            73             0.65        0                12     0.065
 9            78             0.58        0.02              2     0.073
10            75             0.5         0.36             61     0.071
# ℹ 1,589 more rows
# ℹ 8 more variables: free_sulfur_dioxide <dbl>, total_sulfur_dioxide <dbl>,
#   density <dbl>, pH <dbl>, sulphates <dbl>, alcohol <dbl>, quality <dbl>,
#   type <chr>

#5. Combining the datasets 
wine_data <- dplyr::bind_rows(whitewine, redwine)
wine_data

# A tibble: 6,497 × 13
   fixed_acidity volatile_acidity citric_acid residual_sugar chlorides
           <dbl>            <dbl>       <dbl>          <dbl>     <dbl>
 1             7             0.27        0.36           20.7     0.045
 2            63             0.3         0.34            1.6     0.049
 3            81             0.28        0.4             6.9     0.05 
 4            72             0.23        0.32            8.5     0.058
 5            72             0.23        0.32            8.5     0.058
 6            81             0.28        0.4             6.9     0.05 
 7            62             0.32        0.16            7       0.045
 8             7             0.27        0.36           20.7     0.045
 9            63             0.3         0.34            1.6     0.049
10            81             0.22        0.43            1.5     0.044
# ℹ 6,487 more rows
# ℹ 8 more variables: free_sulfur_dioxide <dbl>, total_sulfur_dioxide <dbl>,
#   density <dbl>, pH <dbl>, sulphates <dbl>, alcohol <dbl>, quality <dbl>,
#   type <chr>
…
#7.
wine_data <-
  wine_data |> filter(quality >6.5, alcohol <132) |> arrange(desc(quality))

#8.
wine_data <-
  wine_data |> filter(quality >6.5, alcohol <132) |> arrange(desc(quality)) |> select(contains("acid"), alcohol, type, quality)

#9
wine_data <-
  wine_data |> filter(quality >6.5, alcohol <132) |> arrange(desc(quality)) |> select(contains("acid"), alcohol, type, quality) |> group_by(quality) |> mutate(alcohol_mean= mean(alcohol), alcohol_stddev= sd(alcohol))
wine_data

# A tibble: 1,198 × 8
# Groups:   quality [3]
   fixed_acidity volatile_acidity citric_acid alcohol type  quality alcohol_mean
           <dbl>            <dbl>       <dbl>   <dbl> <chr>   <dbl>        <dbl>
 1            91             0.27        0.45     104 white       9         122.
 2            66             0.36        0.29     124 white       9         122.
 3            74             0.24        0.36     125 white       9         122.
 4            69             0.36        0.34     127 white       9         122.
 5            71             0.26        0.49     129 white       9         122.
 6            62             0.66        0.48     128 white       8         102.
 7            62             0.66        0.48     128 white       8         102.
 8            68             0.26        0.42     105 white       8         102.
 9            67             0.23        0.31     107 white       8         102.
10            67             0.23        0.31     107 white       8         102.
# ℹ 1,188 more rows
# ℹ 1 more variable: alcohol_stddev <dbl>
